New.variable.name,type,dhs.variable.name,special.recodes.car
"Mothers.highest.educational.level.HC61","factor","HC61"
"Mothers.highest.year.of.education.HC62","numeric","HC62"
"Number.of.household.members.HV009","numeric","HV009"
